%YAML 1.1
%TAG !u! tag:unity3d.com,2011:
--- !u!1045 &1
EditorBuildSettings:
  m_ObjectHideFlags: 0
  serializedVersion: 2
  m_Scenes:
  - enabled: 1
    path: Assets/Scenes/menu.unity
    guid: f4098d6f8e4abcd48b72a31ec0ebb00f
  - enabled: 1
    path: Assets/Scenes/01.unity
    guid: 2cda990e2423bbf4892e6590ba056729
  m_configObjects: {}
